                 ¶¶¶¶¶¶¶¶¶¶¶¶¶¶¶¶¶¶¶
              ¶¶¶___________________¶¶¶¶
            ¶¶¶________________________¶¶¶
          ¶¶_____________________________¶¶¶
        ¶¶¶_________________________________¶¶¶
        ¶¶_____________________________________¶¶¶
      ¶¶_________¶¶¶¶¶______________¶¶¶¶¶________¶¶
    ¶¶__________¶¶¶¶¶¶_____________¶¶¶¶¶¶_________¶¶
    ¶¶____________¶¶¶¶_______________¶¶¶¶_________¶¶
   ¶¶______________________________________________¶¶
   ¶¶______________________________________________¶¶
   ¶¶______________________¶¶¶¶____________________¶¶
   ¶¶________________¶¶¶¶¶¶¶¶¶¶¶¶¶¶¶_______________¶¶
   ¶¶_____________¶¶¶¶_____________¶¶¶¶____________¶¶
   ¶¶____________¶¶¶__________________¶¶___________¶¶
    ¶¶___________¶______________________¶_________¶¶
    ¶¶¶_________¶________________________¶_______¶¶
      ¶¶¶_______¶________________________¶______¶¶
        ¶¶¶___________________________________¶¶
          ¶¶¶_______________________________¶¶
            ¶¶¶___________________________¶¶
              ¶¶¶¶_____________________¶¶¶
                  ¶¶¶¶¶___________¶¶¶¶¶